{
    "pages": [ //pages数组中第一项表示应用启动页，参考：https://uniapp.dcloud.io/collocation/pages
        {
            "path": "pages/index/index",
            "style": {
                "navigationBarTitleText": "uni-app"
            }
        }
    ],
    "globalStyle": {
        "navigationBarTextStyle": "black",
        "navigationBarTitleText": "uni-app",
        "navigationBarBackgroundColor": "#F8F8F8",
        "backgroundColor": "#F8F8F8",
        //全局的配置
        "usingComponents": {
            "van-button": "/wxcomponents/dist/button/index",
            "van-search": "/wxcomponents/dist/search/index",
            "van-row": "/wxcomponents/dist/row/index",
            "van-col": "/wxcomponents/dist/col/index",
            "van-sidebar": "/wxcomponents/dist/sidebar/index",
            "van-sidebar-item": "/wxcomponents/dist/sidebar-item/index",
            "van-grid": "/wxcomponents/dist/grid/index",
            "van-grid-item": "/wxcomponents/dist/grid-item/index",
            "van-card": "/wxcomponents/dist/card/index",
            "van-cell": "/wxcomponents/dist/cell/index",
            "van-cell-group": "/wxcomponents/dist/cell-group/index",
            "van-tag": "/wxcomponents/dist/tag/index",
            "van-icon": "/wxcomponents/dist/icon/index",
            "van-tab": "/wxcomponents/dist/tab/index",
            "van-tabs": "/wxcomponents/dist/tabs/index",
            "van-goods-action": "/wxcomponents/dist/goods-action/index",
            "van-goods-action-icon": "/wxcomponents/dist/goods-action-icon/index",
            "van-goods-action-button": "/wxcomponents/dist/goods-action-button/index",
            "van-swipe-cell": "/wxcomponents/dist/swipe-cell/index",
            "van-submit-bar": "/wxcomponents/dist/submit-bar/index",
			"van-stepper": "/wxcomponents/dist/stepper/index",
            "van-empty": "/wxcomponents/dist/empty/index",
            "van-field": "/wxcomponents/dist/field/index",
			"van-toast": "/wxcomponents/dist/toast/index",
			"van-count-down": "/wxcomponents/dist/count-down/index",
			"van-nav-bar": "/wxcomponents/dist/nav-bar/index"
        }
    }
}